From @JoeBiden to @POTUS
…
by_source_sentiment <- tweet_words %>%
    inner_join(get_sentiments("nrc"), by = "word") %>%
    count(sentiment, id) %>%
    ungroup() %>%
    complete(sentiment, id, fill = list(n = 0)) %>%
    inner_join(sources) %>%
    group_by(source, sentiment, total_words) %>%
    summarize(words = sum(n)) %>%
    arrange(desc(total_words)) %>%
    ungroup()

by_source_sentiment

## # A tibble: 50 x 4
##    source          sentiment    total_words words
##    <chr>           <chr>              <int> <dbl>
##  1 The_White_House anger               5210   156
##  2 The_White_House anticipation        5210   414
##  3 The_White_House disgust             5210    67
##  4 The_White_House fear                5210   207
##  5 The_White_House joy                 5210   267
##  6 The_White_House negative            5210   360
##  7 The_White_House positive            5210   780
##  8 The_White_House sadness             5210   162
##  9 The_White_House surprise            5210   138
## 10 The_White_House trust               5210   544
## # ... with 40 more rows
…
